<?xml version="1.0" encoding="utf-8"?>
<!-- Generator: Adobe Illustrator 16.0.0, SVG Export Plug-In . SVG Version: 6.00 Build 0)  -->
<!DOCTYPE svg PUBLIC "-//W3C//DTD SVG 1.1//EN" "http://www.w3.org/Graphics/SVG/1.1/DTD/svg11.dtd">
<svg version="1.1" id="Layer_1" xmlns="http://www.w3.org/2000/svg" xmlns:xlink="http://www.w3.org/1999/xlink" x="0px" y="0px"
	 width="387.789px" height="313.606px" viewBox="0 0 387.789 313.606" enable-background="new 0 0 387.789 313.606"
	 xml:space="preserve">
<path d="M140.223,169.301h41.172v41.171h-41.172V169.301z M206.395,169.301h41.172v41.171h-41.172V169.301z M140.223,103.129h41.172
	v41.176h-41.172V103.129z M206.395,103.129h41.172v41.176h-41.172V103.129z M140.223,36.957h41.172v41.176h-41.172V36.957z
	 M206.395,36.957h41.172v41.176h-41.172V36.957z M104.81,0v313.606h68.5v-70.047h41.171v70.047h68.5V0H104.81z"/>
<path d="M318.062,182.231h37.485v37.483h-37.485V182.231z M318.062,121.985h37.485v37.483h-37.485V121.985z M318.062,61.742h37.485
	v37.485h-37.485V61.742z M298.977,28.094v221.741h26.449v63.771h62.363V28.094H298.977z"/>
<path d="M32.243,182.226h37.484v37.484H32.243V182.226z M32.243,121.985h37.484v37.483H32.243V121.985z M32.243,61.742h37.484
	v37.485H32.243V61.742z M0,28.094v285.512h62.363v-63.771h26.453V28.094H0z"/>
</svg>
